<svg width="400" height="530" viewBox="0 0 400 530" fill="none" xmlns="http://www.w3.org/2000/svg">
<path d="M0 0H400V530H0V0Z" fill="#E5E5E5"/>
<path d="M0.5 0.5H399.5V529.5H0.5V0.5Z" stroke="black" stroke-opacity="0.3"/>
</svg>
