<svg width="45" height="45" viewBox="0 0 45 45" fill="none" xmlns="http://www.w3.org/2000/svg">
<rect x="0.5" y="0.5" width="44" height="44" fill="#F8F8F8" stroke="black"/>
<path d="M22.5002 27.1668C25.0775 27.1668 27.1668 25.0775 27.1668 22.5002C27.1668 19.9228 25.0775 17.8335 22.5002 17.8335C19.9228 17.8335 17.8335 19.9228 17.8335 22.5002C17.8335 25.0775 19.9228 27.1668 22.5002 27.1668Z" fill="#7E7E7E"/>
<path d="M18.1248 7.9165L15.4561 10.8332H10.8332C9.229 10.8332 7.9165 12.1457 7.9165 13.7498V31.2498C7.9165 32.854 9.229 34.1665 10.8332 34.1665H34.1665C35.7707 34.1665 37.0832 32.854 37.0832 31.2498V13.7498C37.0832 12.1457 35.7707 10.8332 34.1665 10.8332H29.5436L26.8748 7.9165H18.1248ZM22.4998 29.7915C18.4748 29.7915 15.2082 26.5248 15.2082 22.4998C15.2082 18.4748 18.4748 15.2082 22.4998 15.2082C26.5248 15.2082 29.7915 18.4748 29.7915 22.4998C29.7915 26.5248 26.5248 29.7915 22.4998 29.7915Z" fill="#7E7E7E"/>
</svg>
