<svg width="31" height="28" viewBox="0 0 31 28" fill="none" xmlns="http://www.w3.org/2000/svg">
<path d="M0 28H30.24V23.3333H0V28ZM0 16.3333H30.24V11.6667H0V16.3333ZM0 0V4.66667H30.24V0H0Z" fill="black"/>
</svg>
