<svg width="32" height="30" viewBox="0 0 32 30" fill="none" xmlns="http://www.w3.org/2000/svg">
<path d="M31.25 3.02143L28.1027 0L15.625 11.9786L3.14732 0L0 3.02143L12.4777 15L0 26.9786L3.14732 30L15.625 18.0214L28.1027 30L31.25 26.9786L18.7723 15L31.25 3.02143Z" fill="black"/>
</svg>
