<svg width="36" height="18" viewBox="0 0 36 18" fill="none" xmlns="http://www.w3.org/2000/svg">
<path d="M0 10.3898H4V6.96203H0V10.3898ZM0 17.2454H4V13.8176H0V17.2454ZM0 3.53424H4V0.106445H0V3.53424ZM8 10.3898H36V6.96203H8V10.3898ZM8 17.2454H36V13.8176H8V17.2454ZM8 0.106445V3.53424H36V0.106445H8Z" fill="#B7B2B2"/>
</svg>
