<svg width="25" height="18" viewBox="0 0 25 18" fill="none" xmlns="http://www.w3.org/2000/svg">
<path d="M0 8.01674H7.35294V0.106445H0V8.01674ZM0 17.2454H7.35294V9.33512H0V17.2454ZM8.82353 17.2454H16.1765V9.33512H8.82353V17.2454ZM17.6471 17.2454H25V9.33512H17.6471V17.2454ZM8.82353 8.01674H16.1765V0.106445H8.82353V8.01674ZM17.6471 0.106445V8.01674H25V0.106445H17.6471Z" fill="black"/>
</svg>
